<?xml version="1.0" encoding="UTF-8"?>
<session version="1.0">
<refactoring comment="Rename resource &apos;1986BE92/1986BE1T.launch&apos; to &apos;1986BE92.launch&apos;" description="Rename resource &apos;1986BE1T.launch&apos;" flags="7" id="org.eclipse.ltk.core.refactoring.rename.resource" input="1986BE1T.launch" name="1986BE92.launch" stamp="1540407356519" updateReferences="true"/>
</session>